…
    ## The following objects are masked from 'package:base':
    ## 
    ##     intersect, setdiff, setequal, union

    activity %>% 
            group_by(date) %>%
            summarise(median(steps), mean(steps)) -> activity_by_day

    names(activity_by_day) <- c("Date", "Median", "Mean")

    activity_by_day

    ## # A tibble: 61 x 3
    ##          Date Median     Mean
    ##        <fctr>  <dbl>    <dbl>
    ##  1 2012-10-01     NA       NA
    ##  2 2012-10-02      0  0.43750
    ##  3 2012-10-03      0 39.41667
    ##  4 2012-10-04      0 42.06944
    ##  5 2012-10-05      0 46.15972
    ##  6 2012-10-06      0 53.54167
    ##  7 2012-10-07      0 38.24653
    ##  8 2012-10-08     NA       NA
    ##  9 2012-10-09      0 44.48264
    ## 10 2012-10-10      0 34.37500
    ## # ... with 51 more rows
…
